ID,labware_type,labware_sites,allowed_labware,movable,pipettor_sites,generic_type,category,child_labware_rotation
-1,Trough 100ml                ,0,None,0,"(8, 1)",Labware,Trough,0
-1,Washstation 2Grid DiTi Waste,0,None,0,"(1, 1)",Waste,Waste,0
-1,Washstation 2Grid Waste     ,0,None,0,"(1, 1)",Waste,Waste,0
-1,DiTi 1000ul SBS LiHa,96,None,0,"(8, 12)",Tipbox,Tipbox,0
-1,DiTi 200ul SBS LiHa         ,0,None,0,"(8, 12)",Tipbox,Tipbox,0
-1,DiTi 50ul SBS LiHa          ,0,None,0,"(8, 12)",Tipbox,Tipbox,0
-1,DiTi 10ul LiHa              ,0,None,0,"(8, 12)",Tipbox,Tipbox,0
-1,96 Well Microplate F3072    ,1,['96 Well Microplate F3072 Lid'],1,"(8, 12)",Plate,Plate,0
12,MP 3Pos,3,'all',0,0,Labware,Carrier,0
96,MP 3Pos Flat,3,'all',0,0,Labware,Carrier,0
254,Waste 2GridTroughDiTi Unknown,8,'all',0,0,Labware,Carrier,0
351,16 Position Hotel 30034177,16,"['96 Well Microplate F3072', '96 Well Microplate F3072 Lid']",0,0,Labware,Carrier,0
-1,96 Well Microplate F3072 Lid,0,None,1,0,Labware,Lid,0
-1,Eppendorf tube rack 24*2.0ml,0,None,0,"(4, 6)",Labware,Carrier,0
-1,24 Well Plate F3047,0,None,0,"(4, 6)",Plate,Plate,0
352,Carrier for 12 Holder,1,['12 Well Reservoir Vertical'],0,0,Labware,Carrier,0
-1,MacsChill5 24 rack,0,None,0,"(4, 6)",Labware,Carrier,0
356,EY 01 Mixed Upper,1,'all',0,0,Labware,Carrier,0
357,EY 01 Mixed Lower,1,'all',0,0,Labware,Carrier,90
-1,12 Well Reservoir Vertical,0,None,0,"(8, 1)",Labware,Trough,0
